<?xml version="1.0" encoding="UTF-8" standalone="no"?>
<svg
   xmlns:dc="http://purl.org/dc/elements/1.1/"
   xmlns:cc="http://creativecommons.org/ns#"
   xmlns:rdf="http://www.w3.org/1999/02/22-rdf-syntax-ns#"
   xmlns:svg="http://www.w3.org/2000/svg"
   xmlns="http://www.w3.org/2000/svg"
   xmlns:xlink="http://www.w3.org/1999/xlink"
   xmlns:sodipodi="http://sodipodi.sourceforge.net/DTD/sodipodi-0.dtd"
   xmlns:inkscape="http://www.inkscape.org/namespaces/inkscape"
   width="210mm"
   height="297mm"
   viewBox="0 0 210 297"
   version="1.1"
   id="svg8"
   inkscape:version="1.0.2-2 (e86c870879, 2021-01-15)"
   sodipodi:docname="navbar.svg">
  <defs
     id="defs2">
    <marker
       style="overflow:visible;"
       id="Arrow2Mend"
       refX="0.0"
       refY="0.0"
       orient="auto"
       inkscape:stockid="Arrow2Mend"
       inkscape:isstock="true">
      <path
         transform="scale(0.6) rotate(180) translate(0,0)"
         d="M 8.7185878,4.0337352 L -2.2072895,0.016013256 L 8.7185884,-4.0017078 C 6.9730900,-1.6296469 6.9831476,1.6157441 8.7185878,4.0337352 z "
         style="fill-rule:evenodd;stroke-width:0.625;stroke-linejoin:round;stroke:#ffffff;stroke-opacity:0.988924;fill:#ffffff;fill-opacity:0.988924"
         id="path1084" />
    </marker>
    <marker
       style="overflow:visible;"
       id="Arrow2Lend"
       refX="0.0"
       refY="0.0"
       orient="auto"
       inkscape:stockid="Arrow2Lend"
       inkscape:isstock="true">
      <path
         transform="scale(1.1) rotate(180) translate(1,0)"
         d="M 8.7185878,4.0337352 L -2.2072895,0.016013256 L 8.7185884,-4.0017078 C 6.9730900,-1.6296469 6.9831476,1.6157441 8.7185878,4.0337352 z "
         style="fill-rule:evenodd;stroke-width:0.625;stroke-linejoin:round;stroke:#ffffff;stroke-opacity:0.988924;fill:#ffffff;fill-opacity:0.988924"
         id="path1078" />
    </marker>
    <marker
       style="overflow:visible;"
       id="marker1341"
       refX="0.0"
       refY="0.0"
       orient="auto"
       inkscape:stockid="Arrow1Lend"
       inkscape:isstock="true">
      <path
         transform="scale(0.8) rotate(180) translate(12.5,0)"
         style="fill-rule:evenodd;stroke:#ffffff;stroke-width:1pt;stroke-opacity:0.988924;fill:#ffffff;fill-opacity:0.988924"
         d="M 0.0,0.0 L 5.0,-5.0 L -12.5,0.0 L 5.0,5.0 L 0.0,0.0 z "
         id="path1339" />
    </marker>
    <marker
       style="overflow:visible;"
       id="Arrow1Lend"
       refX="0.0"
       refY="0.0"
       orient="auto"
       inkscape:stockid="Arrow1Lend"
       inkscape:isstock="true">
      <path
         transform="scale(0.8) rotate(180) translate(12.5,0)"
         style="fill-rule:evenodd;stroke:#ffffff;stroke-width:1pt;stroke-opacity:0.988924;fill:#ffffff;fill-opacity:0.988924"
         d="M 0.0,0.0 L 5.0,-5.0 L -12.5,0.0 L 5.0,5.0 L 0.0,0.0 z "
         id="path1060" />
    </marker>
    <marker
       style="overflow:visible"
       id="Arrow2Mend-4"
       refX="0"
       refY="0"
       orient="auto"
       inkscape:stockid="Arrow2Mend"
       inkscape:isstock="true">
      <path
         transform="scale(-0.6)"
         d="M 8.7185878,4.0337352 -2.2072895,0.01601326 8.7185884,-4.0017078 c -1.7454984,2.3720609 -1.7354408,5.6174519 -6e-7,8.035443 z"
         style="fill:#ffffff;fill-opacity:0.988924;fill-rule:evenodd;stroke:#ffffff;stroke-width:0.625;stroke-linejoin:round;stroke-opacity:0.988924"
         id="path1084-6" />
    </marker>
    <marker
       style="overflow:visible"
       id="Arrow2Mend-9"
       refX="0"
       refY="0"
       orient="auto"
       inkscape:stockid="Arrow2Mend"
       inkscape:isstock="true">
      <path
         transform="scale(-0.6)"
         d="M 8.7185878,4.0337352 -2.2072895,0.01601326 8.7185884,-4.0017078 c -1.7454984,2.3720609 -1.7354408,5.6174519 -6e-7,8.035443 z"
         style="fill:#ffffff;fill-opacity:0.988924;fill-rule:evenodd;stroke:#ffffff;stroke-width:0.625;stroke-linejoin:round;stroke-opacity:0.988924"
         id="path1084-8" />
    </marker>
    <marker
       style="overflow:visible"
       id="Arrow2Mend-2"
       refX="0"
       refY="0"
       orient="auto"
       inkscape:stockid="Arrow2Mend"
       inkscape:isstock="true">
      <path
         transform="scale(-0.6)"
         d="M 8.7185878,4.0337352 -2.2072895,0.01601326 8.7185884,-4.0017078 c -1.7454984,2.3720609 -1.7354408,5.6174519 -6e-7,8.035443 z"
         style="fill:#ffffff;fill-opacity:0.988924;fill-rule:evenodd;stroke:#ffffff;stroke-width:0.625;stroke-linejoin:round;stroke-opacity:0.988924"
         id="path1084-5" />
    </marker>
    <marker
       style="overflow:visible"
       id="Arrow2Mend-8"
       refX="0"
       refY="0"
       orient="auto"
       inkscape:stockid="Arrow2Mend"
       inkscape:isstock="true">
      <path
         transform="scale(-0.6)"
         d="M 8.7185878,4.0337352 -2.2072895,0.01601326 8.7185884,-4.0017078 c -1.7454984,2.3720609 -1.7354408,5.6174519 -6e-7,8.035443 z"
         style="fill:#ffffff;fill-opacity:0.988924;fill-rule:evenodd;stroke:#ffffff;stroke-width:0.625;stroke-linejoin:round;stroke-opacity:0.988924"
         id="path1084-3" />
    </marker>
    <marker
       style="overflow:visible"
       id="Arrow2Mend-81"
       refX="0"
       refY="0"
       orient="auto"
       inkscape:stockid="Arrow2Mend"
       inkscape:isstock="true">
      <path
         transform="scale(-0.6)"
         d="M 8.7185878,4.0337352 -2.2072895,0.01601326 8.7185884,-4.0017078 c -1.7454984,2.3720609 -1.7354408,5.6174519 -6e-7,8.035443 z"
         style="fill:#ffffff;fill-opacity:0.988924;fill-rule:evenodd;stroke:#ffffff;stroke-width:0.625;stroke-linejoin:round;stroke-opacity:0.988924"
         id="path1084-68" />
    </marker>
    <marker
       style="overflow:visible"
       id="Arrow2Mend-1"
       refX="0"
       refY="0"
       orient="auto"
       inkscape:stockid="Arrow2Mend"
       inkscape:isstock="true">
      <path
         transform="scale(-0.6)"
         d="M 8.7185878,4.0337352 -2.2072895,0.01601326 8.7185884,-4.0017078 c -1.7454984,2.3720609 -1.7354408,5.6174519 -6e-7,8.035443 z"
         style="fill:#ffffff;fill-opacity:0.988924;fill-rule:evenodd;stroke:#ffffff;stroke-width:0.625;stroke-linejoin:round;stroke-opacity:0.988924"
         id="path1084-7" />
    </marker>
    <marker
       style="overflow:visible"
       id="Arrow2Mend-94"
       refX="0"
       refY="0"
       orient="auto"
       inkscape:stockid="Arrow2Mend"
       inkscape:isstock="true">
      <path
         transform="scale(-0.6)"
         d="M 8.7185878,4.0337352 -2.2072895,0.01601326 8.7185884,-4.0017078 c -1.7454984,2.3720609 -1.7354408,5.6174519 -6e-7,8.035443 z"
         style="fill:#ffffff;fill-opacity:0.988924;fill-rule:evenodd;stroke:#ffffff;stroke-width:0.625;stroke-linejoin:round;stroke-opacity:0.988924"
         id="path1084-1" />
    </marker>
    <marker
       style="overflow:visible"
       id="Arrow2Mend-90"
       refX="0"
       refY="0"
       orient="auto"
       inkscape:stockid="Arrow2Mend"
       inkscape:isstock="true">
      <path
         transform="scale(-0.6)"
         d="M 8.7185878,4.0337352 -2.2072895,0.01601326 8.7185884,-4.0017078 c -1.7454984,2.3720609 -1.7354408,5.6174519 -6e-7,8.035443 z"
         style="fill:#ffffff;fill-opacity:0.988924;fill-rule:evenodd;stroke:#ffffff;stroke-width:0.625;stroke-linejoin:round;stroke-opacity:0.988924"
         id="path1084-89" />
    </marker>
    <marker
       style="overflow:visible"
       id="Arrow2Mend-86"
       refX="0"
       refY="0"
       orient="auto"
       inkscape:stockid="Arrow2Mend"
       inkscape:isstock="true">
      <path
         transform="scale(-0.6)"
         d="M 8.7185878,4.0337352 -2.2072895,0.01601326 8.7185884,-4.0017078 c -1.7454984,2.3720609 -1.7354408,5.6174519 -6e-7,8.035443 z"
         style="fill:#ffffff;fill-opacity:0.988924;fill-rule:evenodd;stroke:#ffffff;stroke-width:0.625;stroke-linejoin:round;stroke-opacity:0.988924"
         id="path1084-73" />
    </marker>
    <marker
       style="overflow:visible"
       id="Arrow2Mend-7"
       refX="0"
       refY="0"
       orient="auto"
       inkscape:stockid="Arrow2Mend"
       inkscape:isstock="true">
      <path
         transform="scale(-0.6)"
         d="M 8.7185878,4.0337352 -2.2072895,0.01601326 8.7185884,-4.0017078 c -1.7454984,2.3720609 -1.7354408,5.6174519 -6e-7,8.035443 z"
         style="fill:#ffffff;fill-opacity:0.988924;fill-rule:evenodd;stroke:#ffffff;stroke-width:0.625;stroke-linejoin:round;stroke-opacity:0.988924"
         id="path1084-66" />
    </marker>
  </defs>
  <sodipodi:namedview
     id="base"
     pagecolor="#ffffff"
     bordercolor="#666666"
     borderopacity="1.0"
     inkscape:pageopacity="0.0"
     inkscape:pageshadow="2"
     inkscape:zoom="1.4"
     inkscape:cx="451.87508"
     inkscape:cy="356.52734"
     inkscape:document-units="mm"
     inkscape:current-layer="layer1"
     inkscape:document-rotation="0"
     showgrid="false"
     inkscape:window-width="2560"
     inkscape:window-height="1361"
     inkscape:window-x="-9"
     inkscape:window-y="-9"
     inkscape:window-maximized="1">
    <inkscape:grid
       type="xygrid"
       id="grid849" />
  </sodipodi:namedview>
  <metadata
     id="metadata5">
    <rdf:RDF>
      <cc:Work
         rdf:about="">
        <dc:format>image/svg+xml</dc:format>
        <dc:type
           rdf:resource="http://purl.org/dc/dcmitype/StillImage" />
        <dc:title />
      </cc:Work>
    </rdf:RDF>
  </metadata>
  <g
     inkscape:label="Ebene 1"
     inkscape:groupmode="layer"
     id="layer1">
    <g
       id="g1087"
       inkscape:export-xdpi="266"
       inkscape:export-ydpi="266">
      <g
         id="g1053"
         inkscape:export-xdpi="266.80887"
         inkscape:export-ydpi="266.80887">
        <image
           width="42.514843"
           height="155.81691"
           preserveAspectRatio="none"
           xlink:href="data:image/png;base64,iVBORw0KGgoAAAANSUhEUgAAAMgAAALdCAYAAABp3CyfAAAAAXNSR0IArs4c6QAAAARnQU1BAACx jwv8YQUAAAAJcEhZcwAAEnQAABJ0Ad5mH3gAAD45SURBVHhe7Z1baGNbmt87Qy5FbpVOYPBhQkbk QmkYJ+0JDq7jU9X4uK7j2AdXtetYhVWxDyW3REsVqWTZ1hGyZ7eQfdqkHjoPIXkImZeQ6afJvISB EDIw8xAYmjxMPzQ9EJp+CPTAPJyBwBmYhy/fumzttfde+koqbbtk+3/gR5fW/rTW0t7fb6/LdrO/ 9rW/9Jfor/z1v0M3bn4AAEgAQQAQgCAACEAQAAQgCAACEAQAAQgCgAAEAUAAggAgAEEAEJhckM// gL4koi9//7v+44r//MccQfTj/+w5BsAUA0EAEIAgAAhAEAAE3rMgC7T97/4H/fhP/1wf1//9xZ/T lz/5H/T9zUSsruPP6Pc+L9L3f/9n9OVfmHD60x/Rv3+5wDGJ8v/3M/q9f1uM16FZoMZv/Yh+rjpt //vy//6IftBUdSRjwXXnPQqyQIf/8090OX35x/R7//W36Qe/9dv0u//7T+grVfbVH9NvupJYQX76 Ez7+sx/S73Ds7/yvn5nYL/+AfvD7f6br+V0u/8F//SH9XB/4E/rd7zh1qDZVnPrK//kDXYeK/ak3 FoAMBRnlv5gg9ntf/eS/0LpbH5M/snX+0X+ifFhuJaOf/bdYfJjwSaHy/+FHuvjnv/udQZkr86Be xeZv00/VyPNH/z4qA4DJTJCveFqkRgAvf2hGCleQ7/2hmlYNu2sv0G/+RH2Dkz4ss4L89LcSU6Gz H+pR5Ks//H68/Nc46dUXnKQ3bf6MfmfdidMs0A/+Dx/ikegwVg6uO+9tiqUF+H8/pO+5cQ5mZOA1 x4Ets1Os3/s8Hje8/f9CP+Zy4hEqLDPSSf85QgLAXD9BvuLFu2+U03yfKrE6wHXnvQky0hTrL35E 3w/LMhDk+3+kCnxTLAD8vDdBbpzYtYOwSP+K1w/xRfpkgoQLdxUbW6QDMIT3J4iz5erd5v1TXjD/ mhOfgSDqWclv/sQ8c/nq5z8yW8KK//5D+vH//fNE/wB4r4IoFqjxH39IP/3SeVD41Z/Rj3//P1HD lUORiSDMr32Hvv/f/5i+1Bba/7jNn//v/0a/kXw4Ca49kwsCwBUGggAgAEEAEIAgAAhAEAAEIAgA AhAEAAEIAoAABAFAAIIAIABBABCAIAAIQBAABCAIAAIQBAABCAKAAAQBQACCACAAQQAQgCAACEAQ AAQgCAACEAQAAQgCgAAEAUAAggAgAEEAEIAgAAhAEAAEIAgAAhAEAAEIAoAABAFAAIIAIABBABC4 JILkabV+Rv3THu088B1/O7c/61H/izNqbC54jwPgYyJBlionnHRv3kKHNjzfHY8F2tibTJClXQgC xmciQfKPilTYKg3Y2eck/qJHFaessPWMbnu+C8BlINMplhlRshgxAJgOIAgAAhciyKB8vkCltpqG 8dpkf9sen6M7WwfUDmy5Ijii0vqivw5fWW6ZVitH1D213++fUO3TZZpxYm887/CxEyq5a5hBmepD h7p9+/3TE2rtPqGc+31N2Fcbx3T3y3R/pU5d9e/KWiIeXHYuUJAetTu8PnnqS1yVaHUqqjXLdpPa OlHjyTxckB41eO0TtJuJ759RZSWKlQRp7XM9QYd29JqpSg0rQOuFu6DP2/beUNA9GMTWuix238gN Qa4eFyjIG2rvPoyVazbrVEmMFjPrBxQkEm64IJywPBrNOuUzq039/f7rwqBsuCAcd1ynpZxTPl+m lirvVmk+LHtgRolkWzduLtKG3pyAIFeRCxSEk/NRvHw429RQCTqYhkmC+OotUE1Ntw5L0WglCNLa ykdlmmXa6fL3AxbHlpm2erRz142zPMIU66pygYIcUcG9Sw/I6+3inWqHGu0TCno8XQrXEiMJkm7v xs01KqlpkpPgwwVJlFk29lUforr1516THjsxA+zoAkGuHhe7SE+U6+mJegCoZAh4LbF3QKVtnttv 8jpiGgVx63OBIFeW9yuIk1ixhXuuZNYA0yTInvp8RMW5dOwNu+aBIFeP9yvIpkrQ9BpgdvtIl0+T IPkXpk9pmZep2FaxEOQq8n4FmbMjRb9HtV21bVqinT2O7famboql6zy2IhzW7ZZyXW8Jd/ePMMW6 orznNQiPFut1aqlkVkKoJFMP3m6Ns4t1UYIwuRUq1HuxB5KN3QLNYg1yZclUkGtLuM1bXvEfB5cW CJIBt/Wf0r+h2lP/cXB5gSCTMs/TQfWnLf0DWvU+5wGXGQgyMttUU89q6naBrjYUquEfSJ7w6IH/ I9ZVBIKMzBoV9niBHv7Fr+L0TP+R5ca9OU88uApAEAAEIAgAAhAEAAEIAoAABAFAAIIAIABBABCA IAAIQBAABCAIAAIQBAABCAKAAAQBQACCACAAQQAQgCAACEAQAAQgCAACEAQAAQgCgAAEAUAAggAg AEEAEIAgAAhAEAAEIAgAAhAEAAEIAoAABAFAAIIAIDBFgizSauWIAvv+v8amLwaAi2VyQTJ6geXt l+Y1Zt29KhW2m1Rc98cBcJFMiSAr5hXL7ltpAZgCpkSQAtXU1Mp57TMA08CUCJJ+LzoA08A5CWIS XpXl7pWocXw2eK9ft12l+7ei75sX9idxXuCffHn/6Qm16yW6E3ujbNTena3O4MWapQfh8TyXH1A7 COvn2M4BFT7OO3V8QEuVE9N2bllvGAza7J9Q7dNlmnFiDXO23uj36djNZSdmtLbBdHK+ghyqZD2h xq59K+yeSkBOksMS5W3s7U/UsSa1VXm3qeMKW8/otjqeWzNrE072VqWsjxWrRxTo2KqJcdvrskiH ZbrjCKgS1CS+6o99Q+12k1r6ZZw92rkbxZq4HjX2zyhoNwexbR17RpUVt95FltuIEXQPaEf3m38j y9zaDc/F6G2D6eRcBdF38UfunXKRim2bHB+FZU58YoplkitZxwc0u3Wkky56cb/9/ukBrSffVe70 LzYCzJeopUaI14VBWZjMAfdj1omdWW0aKZ3Ywa5bsl6XMdoG08n5CsIjRTJ55nViqaR3y32CPKNK j8va5cFoMyDHCRZrc3h7j1+pu/wRFefi5eruXjjk7zg7Z5GQyVi7iTCon0c2NWWKjWJpxmkbTCfn vgaJxSqed/Sdt/HcLfcJYsskBvHD2/OvcVyi9Y4RxFn/DLBCDBLatBe8epaIizNO22A6mXpBAp67 m3WJh08exmKHCtI/opLv+xq73mHGFcT7+xzGaRtMJ1MsiJ3W+KZYKYa3t/qa6/BOc9KMLojtG0+x 5lOxEeO0DaaTKRYkT+s6wdKL9DTD25vZONDtqWNDF9OW0QXJ2/XFGf+OxURsxDhtg+lkigVh5rnc brG269XB1GSn2qF2z01kob0h27GF3SY1OirBo9jRBWEGW9Dc7n7dbOFulam0527zjt42mE6mWxBm 5sMC7eyfDP7KVydb0KPaZ0+crVhJEEY9+NvtUFfLZumrB45luj8fxY0liOKWfYjp1Bscd2hndSGK GbFtMJ1MLggAVxgIAoAABAFAAIIAIABBABCAIAAIQBAABCAIAAIQBAABCAKAAAQBQACCACAAQQAQ gCAACEAQAAQgCAACEAQAAQgCgAAEAUAAggAgAEEAEIAgAAhAEAAEIAgAAhAEAAEIAoAABAFAAIIA IABBABCAIAAIQBAABCAIAAIQBAABCAKAAAQBQOCSCJKn1foZ9U97tPPAd/yiGP4uxelnsr4Pf3/j 1WYiQcxJc15O6SWLk7pAG3uXTBD7stL+F9znu57jCcJXRp9fEkKQd2EiQfKPioNXM+vXM+tXHveo 4pQVtp7Rbc93LyfvIsgbCqpP/DEDHtJO18RCkOki0ynW1T+J4wsS9NTId0DrOU9MyEqTAo7tBuoG A0GmCQgyFuML0qia5G/vPvTH8fpq/TXX2WtS5ZD/F4JMFRciyKB8vkCltrpLuhdqju5sHVBb3z1V gjDBEZXWF/11+MrUy/orR9Q9td/vn1Dt02WacWI1Ofvi/zDuVL3Qv0R3Unf3PM0/rVLjOOpT0GnS +oel8QV5bqdPLMB9X9zdKrU5Tgm0sa/a8iThLdvvvumL7k/Qo9rWSvo3jt33vD3/Ud3dzgEVPs7H 4nznf+bjEtU6JxS453P3bdPJy8UFCtKjdofXJ08TiWsTqbtfp6Jas2w3qa0T4YRKzoJ8uCA9avDa J2g3E98/o8pKFHsjt0alY1Nvq1LW66Ni9Ujf3fvdamydNMt90uVBh0rbah1VptI+t9XndlT5WILw Ws3+u7YRTzrF/apK5CMqzH3gF2Se7/z297TrVbOu265TwyZ0t7IWO5/j9T1vzyHXcxid/5ZuL765 kDr/VmzVzo76XtjO3gjn5hJxgYIMmWZs1qmSGC1m1g/0xVQXPyzz1R3WG/BFn3XKZ1bNtKb/upCI ZekexZN0dutI11F7asvmOCHVHfG4TkuxkYXvtLs9HTuuIDduPqFKj7/XLsf6GbYVvHqmkzwtyIIt S/f7xs1FPqbkchJ53L4/qFOXy5KS3ZgvUUvVkzp/Ud/ulMPz6XyPyd2ai32+7FygIOmTOZz0fNlX 9/B6C1RTF/iwZC/8s0GC5mNxTI6TwSaJ+jwTCuO524ex4wvyAd3WCRof1UxZlOApQebKpr3XxXgC h4QJXl7Rn8ft++NXZvQq8ugVi2WhCmo9FLBotix5/vMvTFvdyhPK2bKryAUKwtMI705OXm8X71Q7 1GjzfLbHUwGV3ImLOVyQdHs3bvJ0Sk1BBhfYCidh2wr7mk4ap553EGRwdx8kux1VWOJQ2pQgVoDW 9oL5nML2x05rxu27aU8i6kvqXPOUdSdcT/Lao1HZpqV/5hHzknOxi/REuZ4mqAeA6iTzorOxd2Dm zZu8jlBlGQsS8Dw7ej6T4BMz/TN1DpN5AkEYd71h7sBnPLWLkiorQUbtu26vf0Ql3/nQRM+w/Oda 3dxKVOEbmxHqjH9vfLp82Xm/ggybA3umA746htabEsROuXxTrATzL+1UaNVzPJzyvKMg0Y5Vwexs JTYH3nWK1X65rD+P2/dVtb08dMSJM/xcG2Y+5HOsNw44xivo5eT9CrJpkqi1FR+aZ7fN/DY7Qeyz Bu9iN4FNOjX1iS2ob86ZvwdL9GsoPkHCftgdpdaL+MiQEoQX6XotMOoifcy+h3/ekrpBeUie6xle jCe/Y2K4Px/Fyy8z71eQOTtS9HtU2zXD+s4ex3Z7GU+xGN92qWqP1z7tnluH/bsvbj/oHtgtzCrV upzU+xyb6NdQvIIw9ql5v39Aq4k7bVoQRtzmTU5pxu17KJkbz+w2qdFRdYdx6XOtPx+HW8nqOx3z fCm5U3fJec9rEB4t1uvU0hfb0N0v0/1b6fmyr47h9XoEYdQ0YGffebClEkM9cPvsSeKiLtKquuA6 MZnBA8V0v4YyTBD7d1e+LW+vIIr5J1TkG4fbb/Uwr7jim++P2Xf1kNWNV/TVd/g6zEdxyXOdf8rr RPfhLn+nVS16HrpebjIVBICrBgQBQACCACAAQQAQgCAACEAQAAQgCAACEAQAAQgCgAAEAUAAggAg AEEAEIAgAAhAEAAEIAgAAhAEAAEIAoAABAFAAIIAIABBABCAIAAIQBAABCAIAAIQBAABCAKAAAQB QACCACAAQQAQgCAACEAQAAQgCAACEAQAAQgCgAAEAUAAggAgAEHOi7tlap++oWBv+62vngbTS6aC 5O4WaWevF38hpH7B4xnVPvV/58ryoApBrgAZCTJH93d75vXGp2fUbXeoVimb1wnvdah1HH+lMACX hQwEydtXBPPd8rBMd275YgC4nEwuyIM6dZUc+9tX6gXyACgmFCRP66/VOuOIis5L50chd69EtY7z cnw1NescUOHjfDxWv5D/hEoPFmm1ckTdMP74gNY/VLGJ8t4RldaTL9g3L9HvVtZo5mPTro5lguMO 7aTi8zT/tEoNnhqGcepF+Y2tFZqJxUX13tnq2D6ovsaPRfGJl/wzAf+OjY/C44aRz43ThvqO299u u0r3MZpPzISCPKNKjy9IuzzWQnSWk16vV/o9qu2WqLBVomLFSbBHTiJYQVr7vMZpN6moYqtH5vtB nQpqehdwknN5YbtJbZ18Pdq567ZpE6lep0b/jNr1qm6zsHtg4xNthqNi98DUu8WyBCqO11KbC+l6 uz3qpqaXSUHytPpaJfAZtaq8Pgvb7/WsUIaxzk3YxqE6zgLb+J09ewM4LGGDYEImFMRcoODVM8+x Iczxd9TFPq7TUi5xbJ6PqYTtVul2WKYF4TKW0J3Cheuefr9DG87oNbNxoMvbL5cHZWE/0wnGzJep pY5xm/Nh2YMyVbYTowXHtVUcJ11Ubus95dEs+VtSgtjY2PeZ3Bzlwu+Oe26G/q5FKrZVOd8oEqMT GI9MBIlPI2Ty20c6gWsbiUS1mMTnC37PlllBWluJ+NWmvtOm5MyVTMK/LjjlNpGGjHSrdppYSCW5 yxqV1CjCo9bSoMzWm0x651h0bp6Y0ZaFLuipYTL+Hc6N0P78y56JfRQvB+ORiSD+BPFjLjKvWeb8 x0MhGpvuZ77QzjREY6dBaTltn/a3U2XDRB4kntNG7u4znr4dUIOndt3eWbQe8Ajirzd9bJZHt3Ct FPCaovjJQ8o53xn73Ejth7HYXp+ICQVZpp0uX3DvFMPP9AoSTkfytFRWd1+ugxfmrb0OVfTcvmzW IRMIorn1kNZ5od5Wo4lqoxtNpyDI9DGhIDwteGGmBeoijTKKjDaNcObOGQqiytJ9XDDzdZZ8VX3O 2VgeFePb1sOnWGMJMmCO7nwWnTtVNva5gSDnzsSC6MQ55sT54ozau09iUwYvc3aNMNYiPSNB1N05 Mf+fCdcyvGbR8tzz1xvGvbsgvBhPbrsm10vjnhsIcu5kIAgzX6CKmmqpi3uqpiVNsz1q/9SkHcT/ 1ETcykzsSmUpSHCsni1E26GD7eJYm3YxzW221J/LhHHc1/ZEIwh/PnW2mHnKVmmbbd/KaiTtWOdG ah+CZEI2gmh4yrDV1H93pUUJ4aQIAp4WrMTjZ1d4Tu/GcuK262W6n3zgmKEgKnb+02Y0/1cP4Par tJpoUz1MdPsWdJq0/uGkU6w1Kuw7D/9UvccdKq4kH1KOcW4gyLmToSDTjJTIAAwHggAgAEEAEIAg AAhAEAAErokgALwbEAQAAQgCgAAEAUAAggAgAEEAEIAgAAhAEAAEIAgAAhAEAAEIAoAABAFAAIIA IABBABCAIAAIQBAABCAIAAIQBAABCAKAAAQBQACCACAAQQAQgCAACEAQAAQgCAACEAQAAQgCgAAE AUAAggAgAEEAEIAgV4Y8rdbPqH/ao53k+xzBO5O5II9fmZdP4l0cF80CbexBkKzJVpBckWqnb6jd PaF+r0n3fTHXmmXaeNWj7mv3DbzjkkUdYFQyFST/4ohHjw5tPDKvaK5txF/aD+yrpGOvqB6XLOoA o5KhIAtUODQXbubmQ9rp8r9fF/nfvtjrCgS5bGQnyN0qtZ1R4/Zuj0eTIyrMpWOXKjwFUyNNonz4 xZ+jO1sH1FbHuA29xtkv0/0VM1LF1jv6BfonVHqwSKuVI+qGL+4/PqD1D1XfEuW9Iyqtp1/mrxa9 qTY7B1T4OD4qDn5Lbjleb/+Eap8uD24QJi6qKyR60X/4G80aThPE+/a2Ooad19y9EtU6JxSEfTs9 8/4W912O6juN46gv3XaV7t9yY68HmQmiL84pJ2HOlllh2i+X/bEjC5IfJEbQPaCdrRIVtqpU6/LF 63s2BKwgrf0eBe0mFTm+WD2iQF3ooE4FVVfQMfVsN6ndVwnAC9u7YXvxNruHdV2Him15Yk1cjxr7 Z4P2onrPqLJi4vKPirrfjR6Xd5v8b/U7SvQ4rEv3m9vbj9ozdSjZR6vDd15nuV792/s9qu2a+GKl Y0Xmuh+5klhBDtXxE2rY+J09cy76hyXKO3VfBzIS5AlV1EWLTamWzTSrW6XbsdgxBXlgRomAy2Zj sYu0wUnpF4TraJdj8WHC9/vc7nxUPrNxoMtjIts2Vb2xKeJ8iVoqsV4XBmVhvcn+zaw2TWI6seL0 aLNOlcRINrN+oOuI/T6hjtR5neOEV/09rtNSeOMKmedjSsDY9TGCpMVZpGJblfPN4aOw7HqQjSBP TZIlF+XzL9U0K7qLhowjiIlN3uEtdjPAJ0hrKzF9sAkbvHoWL89x0qukcBLZbFUfUTE1PcybdRaP REu2zPRPJVQytqB39NRdN5JMEMSLTdhY/OiC5LfVpsnwzZJB3++FZba9WJ8N5lr6fufVJgNB8rT+ mk8qT69Wk8fmyjr5kkk5jiAb+/y516THsTiLc6cflNkpVjgtEWM16STUbaqyoUR9f+tvcWSSBcnr KdROtUONNq8XejxlC9cM7yiI+ewT3WJvJo3NsMyci/Q5YsLYwZrpejC5IHP2Dizhrk2YsQWJJZnD eQrS5wWyneOneTaYlmQjCE8X1UM+1Y+A1zN7B1Ta5nY2eR2S6BsEuVgmFsQM42eDBV2KV2po5inP i4XBd8yFc4d2S86TrHv8edhFttOmrAVZVSOilFgOmQji9C02tQmnf+8oyGhTLHddAUGSTCiIfd4x bAqkCEcYZwckvHCt7fiidNaWuxffPHz0Jc+yXThmL0i4cE+16eGdBOFF8x03dtMkX3Ld5DsfQ+tg Un0Jz/2Yi3QIEjGZICtDFr4x8nZO7yy01e6K3QZtVct6pNmp93jefUSt1N2RE+JYxfKFG2y51qnB cd39o3OZYrk7ZNHWMrPbpEaHR0snScYTJDwX/LvL6nfwVEpNb8JEdrZi9dZqt+eZYg2pg4/5+iJu 8yZ29CBImokEuV9VSXRGlVX/8RD3jjwo+zj+ICpo12l13iZVLCGY3AoVWCD3IVxjt0CzvqTPRBBG Pfjb5UTSIkfttutluu8k1XiCMPNFqlnh1QO7yropn12vm5uDbUs/CL01pG9D6hjWl9mVcuxc90/T v8MAQZJMvkh/n4TbvOUV/3EAJuRSC2L+nIUXoU/9xwGYlMsrSLjI7B/QanIBCkBGXAJBtqmmng3U 7QJdLWCr4R8FnvDoEW0fA5A1l0CQNSrs8QLdXSyrv0bdr9PGvTlPPADZcbkX6QCcMxAEAAEIAoAA BAFAAIIAIABBABD42td+4RcgCABD+Nov/OW/Rn/1b/xd70EArjtf+2t/6xfpxt+e8R4E4LrzNV8h AMAAQQAQgCAACEAQAAQgCAACEAQAAQgCgAAEAUAAggAgAEEAEIAgAAhAEAAEIAgAAhAEAAEIAoAA BAFAAIIAIABBABCAIAAIQBAABCAIAAIQBAABCAKAAAQBQACCACAAQQAQgCAACEAQAAQgCAACEAQA AQgCgAAEAUBgckFubVHr9N9Q//R79OJDz/Ek/3CDGjq+S+u3PMcBmCKyE6TPfGeNbvpiHL7xr/os BwQBl4PMBDnqqsT/nB7/Q09MyC+uUYVFah12IQi4FGQmSOv5tk7+YOdjfxzz99c+55GmSRtFCAIu B9kJ8q1/TvM739MCLP2iJ+7rH9OL7xqB/tG3hgjy9Tx9Y+0VNX6D69HTMI7/jc+ptLZIf8+NY35Z 1/GKbv/SIq1/JzDx334QxXD5429/ToGa+qlj303Wk6P5lzzq9XnUg6hgCBkK8o3Bvxtrv5qKu3mv yYka0MY/DZM7IcjX/zmt7plkbn17i+4v/zrdWd6gQtOsWY44+V1JTB2fU+Nff04b/yIf1aP4pQdU +g2ui+UqrKl6fp0ev1TxXM+/+qaNgyDg7WQrCCfd0nc4MTvblP+6G/cNWj/k8tqaTnKfIKasT6Vv /mPnewYz4sR3yUy8T8Yc3f42j0DffUV3fskt53qeqe+wEP8gXg7AMDIWhD9/+G0K+HPlXi6K0WVR gqcFWaCNLgu0t0F/P/yOy9d5RFBTpZfR+sbUEdD6ryRi1UaAGimeL8TLFb+yRZ/zsdI3E+UADCF7 QcLRYpDszqhiv5MWhAUYltQaW+f+5kAgUwePErGRirH90euOIUR9BUDmHASJrzdu/NNtfddu/Mto KpSlILdjcYztT6O4ptcePuZ/xRndABA4F0HcHSu9s/Xdb9O8c6dPCzLaFCsYLLAFQf6BeVI/XDYA Rud8BGHMM48+HbEon2/GkzUtyAeU31RbtdIivU8vFqKyoYLc/FV6rHbDPIt0AMbl3AQJn5rrbdTE 03WfIGqbd33frhE827zqOUu6Dp8gDC/GW7rtLpW+tW6nVuu0XmxSq7lJv6zjsM0L3s75CcKo6ZXv ybpXEMXXf5XmN5v0OY864YI62HtF6x+ln6uIgjB/85/8OhUaQfSgsP89OorVBUHA25lcEACuMBAE AAEIAoAABAFAAIIAIABBABCAIAAIQBAABCAIAAIQBAABCAKAAAQBQACCACAAQQAQgCAACEAQAAQg CAACEAQAAQgCgAAEAUAAggAgAEEAEIAgAAhAEAAEIAgAAhAEAAEIAoAABAFAAIIAIABBABCAIAAI QBAABCAIAAIQBAABCAKAAAQBQACCACAAQQAQgCAACEAQAAQgCAACEAQAAQgCgAAEAUAAggAgcCUF 2dh/Q/0vOrThOfZWnnf4uydUeuA5Bq4dkwvyoE7dL1RCvqHaRt4f43K3Sm0df35JeDGCrFEp4HaC Oi15j4OrQKaC9A9LlPfFDMjT6uszEwtBppL5zSa1g4N3O3dXkMwECXoq8Xu0c9cTEzJXohbHdoMT CDKlLFXUtXnHc3cFyUyQ7qumTv7+6yLN+OKY27s9PvlHVKlDkGkFgsTJTpDKGq2/Vol5RIU5T1yu SLVTI5C5CJ4kzC3T6m6Hun1Vj6V/Qo3dAs26cZaZDwu0s39CgapXxfZ6VPl0mQpDBJldr1LjOJzi 8ah33KGd9cVYzGSC2LL9bZr5uBS1dXpGrd0nlOOYWDnT3SvRnZxbr5uki/HzcXpC7Xo6XpG7V6Ja xzkX3Ga3c0CFj5Prwm1qqHb5et3Z4rp1PP/eujNVduHfEv/+9SJTQcJ/t3cfpuLyL474hJ9RZSVM gEQS5ji5uuaidPfrVNwqUWGrSrWuSaaAL1RMknm+0CpxOGkalTLHlqhYURf8jAKdUHFBZjnxA1VP 94B2bN0Nlczcp9pTJ4myEKTToUZPie2284Yan5W5z2fUrpr+7uyp88B9el2Ijbrm/BxRSf1v0KHS tqqnTKVDG584F+Fv6/d7VNNthudCtcu/5ZEriRWk26PuYZnu3LLlc3yDU33aN1Plij5HzCfpa3md yFaQmwtUOOSL0mvS49hdziZOu6wvrE8QU3ZGjeeJOzov7M0xd5dswU6jkhdf3aHDXTJHkDlOCpUs h6W4ZEpK1a9ulebDsiwEUTeCVadfYfv2PEUyPKQddVM4PaDVQVl4Lrg82V8+F49fmRtG7aktC+s+ 5n4kR5bwJsK/7/ag3Aii2lz3jESmbUyxQjIWhBN040BfwNaLhUFMWBYmeFqQZ1TpJS+kQ85e1D07 3OfMYt+/3skbSZ2LnN+2o9dqMtaTEFkIklqXLFCxrfp0RMXE9NO036Odj5Jl/v7e+MjcAMLzbX7b 8C32wbm+F5bZc8ny+daKqfNxzclckEGSDJI9GlXu2+8MLtogCc1FC149s5+T2Dr5LnlHfbZttrYj CV2Si3TTniobhtOXLATxzNuHbRykz0VYxms5zx1+kOC2jTA2Kd4A/Xt4ercZlpnvR9crjqkPgoSc gyDx9caNlaaeH7dfRnPZdFK8oyBb/rumX5ATqr2w8+oURVoKE2xqBBmWpFYQXrdEsRDkvDgXQdwd K72zlZjvppNixCmWTYpwmuEXKpzORBd5/qXaXh4yZUkyNYIM6cNqeMNZ1p9Hm2K5UzgIMg7nIwhj nnmc6W3HoPokdsyXAPeravEpLdLd3SabiKc8DZl3Yz+g3PqB2dFxL3L45y2pRa+HqRGEz1u9oLeG o/hFK7/zQNY+fB13kS4Lwv0ZrFmuN+cmyODCeZ6u+5JC7ygdq3iuy7PNq+p3F5X5zfTW5k69R0G/ Q42OqsdNxmgnLNo2ZbbrVGufULvs9H2KRpAun4+g3Ryci3C7OHkuxG1ePh8bsZuILMiMnZIFh3Wu p0y1cvq3XCfOTxBOSj298uw0eQVR5FZovXoUe1CoHuaVPl3x7rgkH/yFD8b8yThHd7YOqG2TTNM/ 0zKuuw/TpkYQjr31hIr76t+2vwELsDXkXKyUY+fCPFQs0/3ECPs2QdQota7/0sHUE7yy09pryuSC gMwZCOI5Bi4WCDKFQJDpAYJMIRBkeoAgUwgEmR4gyBQCQaYHCAKAAAQBQACCACAAQQAQgCAACEAQ AAQgCAACEAQAAQgCgAAEAUAAggAgAEEAEIAgAAhAEAAEIAgAAhAEAAEIAoAABAFAAIIAIABBABCA IAAIQBAABCAIAAIQBAABCAKAAAQBQACCACAAQQAQgCAACEAQAAQgCAACkwtiX+I5eHlkiHpBZqdD pc2VxKuMAbg8ZCZIsF81r1beKlOp3qFG+0S/I13LEhzQ+of+F92Pwvxmk9pcx3S8UGaZNl71qPv6 er8e+bqQmSDe1wrnFmjpsyPzDu9ekx4nX3Q/ItP1xqXhr3oGV4/zFcRy+2VPjyTt3Yfe428DgoD3 xYUIciNXpJqabnWrND8oz9P802r85ff9E2q4L8oftr4ZJOcIdVhm19Nxtc3lWMyN+QLt7DtTQ1XX boFm7XEjqj3m0Hge1rFIq7sd6vajY8ExTw0/Co+Dy8bFCMJs7KuEcUYB+72ge0A7eu3CCazuzF+c UWNzwcTMrdE6H9vZV4ndo4qOYz6xI9EodTAzTw/0NC9oN6lo42qdM2q7fZ7fpoZK7H6ParumnZ09 I0TwuqCFyz8qmjZ6HNdtmr4wj++qOvK0+lr184xa1bI5tntA7V6PSg9sG+DScWGCpKZJD8pU2U7c 6efL1Oa6+oelWPnQKdaIdWzsKWmOqBBbA+UpdyvcOFgwAp9yzHw8xrTdo53BKDBsisWCefp+IzdH uXdce4H3z4UJsvpaJenb1hE2+YI6LTnl461B0nXcr5o7e2NrOZ68IXNlavFvCF49Sx97ZH5fNI0a JsgTqqiRpd+hwgQ7dmC6uCBBFqjY5uRRO1lOee7uMypUDqix36Nu78zZFh5dkJHqmOc1kJ56MTzl qX32jG7fcuqxv0EfH0L0+4Yv0mc3Dqhr2w86B1TkqSCeAV1uLkaQuZK+Q/dfF+0dnKcuZbOzpRbC rb0OVfS8v2zWECMJMl4dN27O0e0NXj/w2kN/55TXBo/snT78DXWzpvCx/ihc0wwXRHPrIa3zQr2t RhPVTpf7gSnWpeUCBFnk+b1KypNosZqL5uvhDpFhjCnWmHW45O7xlErd6cOYj6p63eKdYqV4iyAD 5ujOZ0dakrdNP8H0cr6C3Fqhgt0JUscH8/97/u/MrDbNQ0WvICzYvahsnDpyt+ZiMWr0KRxyzOkB rerPD2mnqz4nF+k+rCDHdboTK+fFuDttU+TCkbMQLweXhswESf2pSceIobc9d58k5uJ2QctJ36qY LdFi9YiCfo/anrv/zPOOris4rOv6a2V19x69DrVDpdYEZivYxqn6eMQIpZ2xi/H+6Qk1bH3mtxxR V02TbJySy2xZ8+8qc8z2AZU2VTmPaKdn1K5H56HSNpsDlVUs2i8rmQliZIgIepy41TI9HrKjM/Nx KfbgLug0af3DYdOjRVqvh8KpxDZ35FHrWHoRf3inHwB+9iQxNVNTrxLVBmIznPDBcYdKnya3knnR fxzFVNZV+RoV3IeMjPpucWUx+h64dEwuCABXGAgCgAAEAUAAggAgAEEAEIAgAAhAEAAEIAgAAhAE AAEIAoAABAFAAIIAIABBABCAIAAIQBAABCAIAAIQBAABCAKAAAQBQACCACAAQQAQgCAACEAQAAQg CAACEAQAAQgCgAAEAUAAggAgAEEAEIAgAAhAEAAEIAgAAhAEAAEIAoAABAFA4GoKMl+gkn6BpnpX oHp9dJ5W6/z5tEc74auoLzO5AtXUOxe71cS7HEHWZCpI7m6RdvZ68RdmKvpnVPvU/53ssa90/uKE GrvqjbZlWr25QBt7V0iQuW1qQJALISNB5uj+bs+8n/z0jLrtDtXUq5R3m9TY61Dr+Iwaz33fOweG vD/9cvKEiu0Tau9ehd9yOclAkLx90f8bCg7LdCf5Mv2L5umB7suFCXmu8EhxZWS/nEwuiH1PerC/ nXrv+HvheQeCgMyYUJA8rb9W8/0jKs77jg8nfGn/4MX7amrWOaDCx/l4rE74Eyo9mKM7W51ofXN6 Qq3dJ5QbxJpk0sdcWFx13IxyasHu1M39n39apQZPAcP4oNOk9Q9Lpi77XY29EfjES9e9RqXAfH92 vU6tnql78N1bK1Sox9dq3XadVp1zuLEfHYtQ5yFefxhvSP8efV73q7G6NSOfV8PMx8nrpaZ+T2Ix V5EJBXlGFXXx22XKe4/7meWLo9cr/R7VeCFd2OLFdIUvkj75fNEeOZLYC9na5yQMOrTDsYUtTgKV IFxH68WCjX1Ij9WxVz1d3n5l6i188lAf9wky6AfXW9pW8WUqqXb6Z6Z8UkG6PWp3m7T6YVx6nfyc YA21TlO/vWrXb8f1waL79ieqP01qc3nACa5/y1aRluac+mOC8FS3bH579HtKtMMimnPN/XMlGfm8 Mneruh9RnD1Pe0lBrx4TCmLu2sGrZ55jQ1A7MEoElQy5xLF5PmZ3Z26HZfpCeuLny9RS5Rw7H5Y5 8clETiXx0H5Ea6qJBfmiRzt347GKjTJLE7uj221ofXNwy835TU+xPIIIU92ZR+ZY/3WRZsLyMc7r nbL6fcm+8Szg1lzs81UkE0HGmSPnt4/0haltJKZSFpNsfDHu2TJ7IVtbyfhls50bRHddN/5tgszY OG8/ciWTJJMKkuybhLffowvy+JUSzC+kEtBM2Zw+jnFe8y/MNetW0lOvq04mgvQPS9Gd6S2YZOI1 i54qeAgTZdP9rObKTowlddEV3kRLJ7HcD/u7JhVk2HnJLdDSRpUqdgs86EVrhncVRJ+LXpMex+Ii TB+TN54Rz2tujXbCB696arhNS//Mf4O7akwoiL3bnB7QenK6NIRpE6Tg7XdGgrjfDwmnkVxXt9Oh Rr1ORZ7Xb/A6ZGoF0eQp/6hElbaqRx1Xz7YWneNXkwkFcYfftZFGkdGmWDxV+MiWnZMgZl59RpXV eJxmzs7DPYJ0yyvxWN/0RRBkkKjuRgQzs2XOy7sKMtIUi29kq2HZ2IJEzHxYoJpqX8WMeGO8rEws iL5Yx+pkneltv7fOUefs/H6sRXr2gtxYaZrdHZ4GxRe1c3bBzMfcBA+laZfj8eGidkRBNvZUbHLk WqRiW5X7BUnvFnnqt79HWqQHrwuJRfpo53WGF+PJm1/qRnZFyUAQZr5AFf33T4zaR99rmu1A+6cm 7SD+pybiNu+Q7cjMBQn/PkslTvdgsM1Z6/KaYJ/7rPoXS3Anvt3U06LC7gG1+2fU0tOO0QQJR1y3 TbW12u76pli2Hv79NbVtW+Z29Xnw1e/svvm2eZM3pDHOq673OKqzsGuvVfJmcQXJRhCNeuDU1ItO fZFCTjnhAr7TrMTjZ1fKiQdaJ9Sul+n+0AdaiXJmMkEUi7SqLrbzkKxdL9GdnL1zJxM8t0KFPedh We+ISuuLnrqHC6LbrBzZZz6MWvR+xiPvkH7PPKoOHjT2T3ntpu/Yw+rP051P+RrwDUnHK/pqUV3k 3+TGMWOc1/zTpr7JuXW2qp46ryAZCnKFCLd5r8GDMCADQTzMbJg/eGy/XPYeB9cHCJIkx9MXvekw bEcIXCeusSBrtNNxNhQYtVHQ1uuRM2p/NvpfB4CryzUWZIFWy7xYdp5ih39RXFxdHvkvA8DVBlMs AAQgCAACEAQAAQgCgAAEAUAAggAgAEEAEIAgAAhAEAAEIAgAAhAEAAEIAoAABAFAAIIAIABBABCA IAAIQBAABCAIAAIQBAABCAKAAAQBQACCACAAQQAQgCAACEAQAAQgCAACEAQAAQgCgAAEAUAAggAg AEEAEJhckPD94al3eQNw+YEgAAhAEAAEIAgAAhcqSO5eiWod50X89p2AhY/znvg5urN1QG31wnwV q9rYL9P9FV97i7S626GufgGnITg+oA390n0A3p0LE2T2eYcClbz9HtV2o7fKdrUsJ1R65EqSp6XK iUn07oF9C22Vat0z/r556WbUXp5WX6uyM2pVy7rewi6L1etR6UHUPgDvwsUIMrdNDSXCcZ2Wcolj 83xM3fm7Vbodltk6g/1tmnVjeaTY2E8Kwt/nz/3DUvzNtLk5yiXbAmBMLkSQ/PaRTurahm8q9YEd LXgUued+HvIi/0fJ9p5QpadGpg4VPvTXD8C7ciGCmIQ/ouKc//gNnn4pgRqb5vPGPid8r0mPk3EK T3uzGwd2qsajjnrP+ScPKed+B4B3ZHoFCXg6loxTDGvv1kNa54V6W40mfLzf9UznABiTKZpi8ZTK 7jpt7KkkHyLUalMv9oe3N0d3PjPtSX0CYBQuaJFeohbHjLpIz7+IEjy+8F6mYtuMEFF7vBi/5cTo ONve60K8HIAxyUyQYL9qtlhjFGnJjgLiNi8vsDfm3XrXqHRsRTisU1HVtV2nRsCf948SQqodsjNq 18P2y1Rpm23fyioW7WAyMhNEJXOak9iziNmVMjWOzTat5vSEE7tM92NyWHIrVKj3Bovvfv+EGrsF mk2NWGtU2HcePjLBcYeKK4vx+gB4ByYX5KIJt3nLK/7jAGTIpRPk9m5PjxK1p/7jAGTJ5RIkXND3 D2gVW7jgAphSQbapFvSoUbcLdGanyotzvc444dFjwfMdALJnSgXhhfceL9Cdv87Vf/m7X6eNe3Oe eADOh8u3SAfgAoEgAAhAEAAEIAgAAhAEAAEIAoAABAFAAIIAIABBABCAIAAIQBAABCAIAAIQBAAB CAKAAAQBQACCACAAQQAQgCAACEAQAAQgCAACEAQAAQgCgAAEAUAAggAgAEEAEIAgAAhAEAAEIAgA AhAEAAEIAoDAtRDk9mfqrVRn1NjEe0XAeEwuiPMSz2HvQY9xt0ptHR9/wed5sqRf2wZBwPhkKkj/ sER5X8yAPK2+Dt9ye3GC+HlCxfYJtXeF97uDa09mggQ9lfg92rnriQmZMy/47wYnUyDINjVUXwav kwYgTWaCdF81dfL3XxdpxhfHmDfUHlGlDkHA5SA7QTjR1l+rqdMRFeY8cbki1dRLOFmgpcoQQXLL tLrbib+bsH9Cjd0CzbpxjKmjQxvqO5XwBZ8mvvbpclzS551Yexv7Tv0D4v3J3StRrXNCQVivekdi 54AKHyfXWZFod7a47/ZFo+9XfpAVmQoS/ru9+zAVl39xxIlzRpWVMLkTSZRbo1LXJKN6Wad5u22V al2zZgn2t2OSmDp61Ng/o6DdNPHbTWpruUw7g7oTgtz+RNXNsbreqn6LbmGLxbViz3J8wMf6/R7V ds1bdosVJ/kfuZJYQbo96h6W6c6tsBxcBbIV5OYCFQ45iXpNehx7jzknf8Dl7bJOcp8gpuyMGs8X ne8p8vZYfJcsLEuKM7PaNMn9ujAoSwpiGDLFmuNyJcJxnZaS72IP39PerdLtQbmpp396QOt4d/uV I2NBOEE3DnTitl5EW6phWZjgaUGeUaWXTDyHnE3Cve1B2aCOR4nYmwUzlTssRdOsMQTJb6uRbviW 9aDde2GZ7ZvbHrgyZC7IYLQYJHs0qty330kLYpIsePXMfk5i6+S7+h1bZurgNUgszokNeAQIy8YQ xNR7REXfOkqh63pDjc2wzF8PuBqcgyDx9caNFTPlab+M1iUQBFwWzkUQd8dK72wl5udpQUacYjnr ivMSZLQpVo92PgrLIMhV5nwEYcwzjzO9TRpUn8SOpQX5gO5X1W6VtEg/o9rT5CJ9ckHcdY3GPswc d5EOQa4m5ybIINE8T9d9guht3mMVz3V5tnlV/e4ieHJBbByX17a5rXKTiva4uM3b5zbn3XogyFXm /AThO7+eXnmerHsFUeRWaL16FHtQGBx3qPTpypA6JhHkA5p5VKWWmtqptk553TGYNrEkK2VqHId/ N6aOn1C7Xqb7MTkUEOQqM7kgAFxhIAgAAhAEAAEIAoAABAFAAIIAIABBABCAIAAIQBAABCAIAAIQ BAABCAKAAAQBQACCACAAQQAQgCAACEAQAAQgCAACEAQAAQgCgAAEAUAAggAgAEEAEIAgAAhAEAAE IAgAAhAEAAEIAoAABAFAAIIAIABBABCAIAAIQBAABCAIAAIQBACB9yPIkHcGAjBtZC7I41fRW2l9 xzUQBFwSshUkV6Ta6Rtqd0+o32vSfV+MYqoEeULF9gm1d/GWWpAmU0HyL4448Tu08ci8Grq2Eb34 P8ZUCYLXOIPhZCjIAhUO31B/f5tmbj6knS7/2/OOdA0EAZeE7AS5W6W2M2rc3u2xBEdUmPPEDgTJ 052tA2qrF//zd/unZ9Tdr9Jq6mX9zK0VKtR71O3bWCYIelTbWklIKCR8QsyN/aiuiGkRF0wDmQmy VOF1x+kBredsmRWm/XI5FRsmaq3SoaDPSb5bosJWiXZYgEAl6XGdlsJ6FPOc9FqMM2rXqzq2sF2n hhVLyRBJMrogtz9R7TZ1PwMWU9e7VaQln9TgWpKRIE+o0uNkjU2pls00q1ul27FYRicqHwsSIjCz 22odw2J9Foq1YO/0nNiPkmuaRT6mds16tHM3LBtdEAOmWGA42Qjy9EAndXJRPv9STbPOqLLixCqs IK3thXi5pqB3wvqHJSPbXJlaHDt0PfPAbAh0yyu2DIKA7MhAkDytv+YE5unVavKYTe7g1bN4eZio j5yyAWtUUlMnNbqoz1YAv0wKk+D9ve3YZwgCsmByQeZK5g4v4a5NFN5EDbGC8NRsXn2GIOA9MrEg eb1mOKOGXWineKWmWZzgL5wE14n6hhrPPc9JBlOqQuKzPMWKNgOSwkTojQQIAsZgQkHs845ekx57 jzPhCMNrinxYZgXpt8s0H1uk5+2fqpxR7Wkoj32+oqdkoyzSn5kNA9Unt+6cLR8iiE8oACYTZKWp t2VTa4wYebsL5SSxFuSMusec3EGHdvRoU6ZK2/wdV7C/TbNuHeI2L49ezxejWGaprEYKPhbWzbEt jm211WiWFMRO6bi8ts2x5SYVvVM/cB2ZSJD7VXO3r6z6j4fMbJhdrsE0JlwLPFqm9WqPArVrpRK6 f8JTtUJcjpD5J1TcO4liVX2dAyquxOUwLNJq5Yi6Yewp16seKHrXINy/R1Vq6dFFxR5R8aP4cXB9 mXyRDsAVBoIAIABBABCAIAAIQBAABCAIAAIQBAABCAKAAAQBQACCACAAQQAQgCAACEAQAAQgCAAC EAQAAQgCgAAEAUAAggAgAEEAEIAgAAhAEAAEIAgAAhAEAIGJBbn97X9D/VOXLq3f8seOyy9/q0v9 wy36Zc+xS8mtLWqdvkq/DgJMLZkI0vrWN6Kyb75iSbJJAggC3jfZC3LzAZV4JCl9Mx73LkAQ8L45 J0Hi06z4NMwzBdOJ48R8+4EuTwqiP/PxgXyx73G930wkYDia6f+N6lUkp4au0F4xVR2Dsm/Q+qH5 3W498fPAiP0zdbh9AtNH5oLohIlddBbG+ZxKPptEUYJy4nzLI4hOckcu3/dUwqUESfbHk5iJukYV JCbWO/Qvfa7AtHEOi3QnQX3oxIknSerOaxkkairZhiRXou5U0g7K0n3Ubdn6RhbEI17Yx5H6B6ae i1mD2ARPSySvV0yidlNyhMnon9IkBYknpDf5FY4AowoSb98tG7F/YOo5B0E8d+PU1MMVJHGHdwi/ 2+Jkk+7WA0YVJHlnV5yDIG/tH5h6zlkQT6LEksSXaBFRopqRxo3zTmGSQngE8ZYxMXFiMjjHRxZk xP6BqSd7QbQAkRTxRDFJlE5idxThGN8i3dY7aCv1PSPRWwUJ++Amr647Oco5YtvP4wgySv+8EoGp 4hwW6cmpRZgYCk6Y5FasQidT9P0wyeJ3bSfOvdMPvsd16kR+myCKUNQQN5ENuu3wuOqDqmscQRRv 6R8EmX4mFmSqiCUxAJNzhQRJr1MAmJTLK0hs+mJI7RoBMCFXa4oFQMZAEAAEIAgAAhAEAAEIAoAA BAFAAIIAIABBABCAIAAIQBAABCAIAAIQBAABCAKAAAQBQACCACAAQQAQgCAACEAQAAQgCAACmQqy sf+G+l+4dGgjGfe8I5SfUOmBr9wTnyQWt0al4A11K2vpuCkjfc485wC8N7IR5EGdunxx0wm5TY1U uSlrPHfjPqClyolOkGQdunx/O1bm5RILEuvnqDeEAep8QqrzIgNB1AUKL6hJ/sHd0Ca2SoJICF/y 2rIgKcMYiX5VBBlyAxkOBDlPJhZE3eHNxZQuLB8L6rRkP+tRwflsRiBO7tTdM3Hx9fFIwOF33qQg Yd9Muff7THy6E0+6QZ9jfXD76qsj+VtUH8z/hsf8gsTbHtqvxPnw9QdMxsSCbOzbi6IuljAVWqp0 ogsbChEeV9/VwviEiOIGbSl0HcNi/YLEk96UxWKc/icl1p9VHcmYWP88xwd1hH1wfgOTFCRZx9v6 ZeqNCwWyY0JBOBH37cUaRxCbLOFo4yaJ+2+dDEPrNBIMRqwRBHETUZFONoeExEkZDM7vSEo/OB4m r78PWggtTkiyjgSpdtw2QNZkN4K4yZKIUcQFce+U8QscSZEQQGPK3IQaR5BU39R3XEF08rn1R4no l8npo27f/W6EadffB/eGYPDECf1Knj+QLRmuQRTm4g4u5ODuz+XJ5AqTM3lHHHxOXHibJFEyJQSa UBAzQiTbG1cQN3GT+PuQFsS9Sby9XxDkfJlYEHOBpMQwSZBKTn2hWa79KBkMNpF4ZHIT0k0aw+SC RHUm6lKMJIiTnPb3DE9Ufx9kQd7er1gfBmUgKzIQhNEXLX2hw6RIlyvMxVcjTfK4nn4lyxN3aHNn HU+Q2B0+kdC6zYGAYd/S7bl9in/Hfo5JxPWEa7RRBbHnMox7W7+G1QuyIRtBLPpi6kQMcS9kGpN0 nrufTnZ/MoV1dyvb8bvrSCNIKIohXr97jPv0PH6nDkeQDSuKZsiUa3CcidoYLogbH/+OQu6XIpT3 becbjE+mgkwv/uQch1CQuBDgqgNBRgSCXE8gyIhAkOvJNREEgHcDggAgAEEAEIAgAAhAEAAEIAgA AhAEAAEIAoAABAFAAIIAIABBABCAIAAIQBAABCAIAAIQBAABCAKAAAQBQACCACAAQQAYygf0/wFa cAOeRmSKzAAAAABJRU5ErkJggg== "
           id="image843"
           x="2.6458333"
           y="10.87059" />
        <rect
           style="opacity:0.999;fill:#080f19;fill-opacity:1;stroke:#080f19;stroke-width:0;stroke-linecap:round;stroke-linejoin:round;stroke-miterlimit:4;stroke-dasharray:none;stroke-opacity:1"
           id="rect847"
           width="161.7738"
           height="168.01028"
           x="44.979168"
           y="5.2916665" />
        <text
           xml:space="preserve"
           style="font-style:normal;font-variant:normal;font-weight:normal;font-stretch:normal;font-size:6.35px;line-height:1.25;font-family:'Arial Rounded MT Bold';-inkscape-font-specification:'Arial Rounded MT Bold, Normal';font-variant-ligatures:normal;font-variant-caps:normal;font-variant-numeric:normal;font-variant-east-asian:normal;fill:#ffffff;fill-opacity:1;stroke:none;stroke-width:0;stroke-miterlimit:4;stroke-dasharray:none"
           x="50.734852"
           y="11.230638"
           id="text857"><tspan
             sodipodi:role="line"
             id="tspan961"
             x="50.734852"
             y="11.230638">Here you can start a training of a CNN</tspan><tspan
             sodipodi:role="line"
             id="tspan963"
             x="50.734852"
             y="19.168139" /><tspan
             sodipodi:role="line"
             id="tspan965"
             x="50.734852"
             y="27.105639">Here you can use a CNN</tspan><tspan
             sodipodi:role="line"
             id="tspan967"
             x="50.734852"
             y="35.043137" /><tspan
             sodipodi:role="line"
             id="tspan969"
             x="50.734852"
             y="42.980637">Find your networks here and analyze them</tspan><tspan
             sodipodi:role="line"
             id="tspan971"
             x="50.734852"
             y="50.918137" /><tspan
             sodipodi:role="line"
             id="tspan973"
             x="50.734852"
             y="58.855637">Compare networks against each other</tspan><tspan
             sodipodi:role="line"
             id="tspan975"
             x="50.734852"
             y="66.793137" /><tspan
             sodipodi:role="line"
             id="tspan977"
             x="50.734852"
             y="74.730637">Use offline augmentation to increase variety</tspan><tspan
             sodipodi:role="line"
             id="tspan979"
             x="50.734852"
             y="82.668137" /><tspan
             sodipodi:role="line"
             id="tspan981"
             x="50.734852"
             y="90.605637">Import CNNs trained on another machine</tspan><tspan
             sodipodi:role="line"
             id="tspan983"
             x="50.734852"
             y="98.543137" /><tspan
             sodipodi:role="line"
             id="tspan985"
             x="50.734852"
             y="106.48064">See all your datasets</tspan><tspan
             sodipodi:role="line"
             id="tspan987"
             x="50.734852"
             y="114.41814" /><tspan
             sodipodi:role="line"
             id="tspan989"
             x="50.734852"
             y="122.35564">Calculated optimal training/inference parameters</tspan><tspan
             sodipodi:role="line"
             id="tspan991"
             x="50.734852"
             y="130.29314" /><tspan
             sodipodi:role="line"
             id="tspan993"
             x="50.734852"
             y="138.23064">Keep everything you have done in order</tspan><tspan
             sodipodi:role="line"
             id="tspan995"
             x="50.734852"
             y="146.16814" /><tspan
             sodipodi:role="line"
             id="tspan997"
             x="50.734852"
             y="154.10564">See current running processes</tspan><tspan
             sodipodi:role="line"
             id="tspan999"
             x="50.734852"
             y="162.04314" /><tspan
             sodipodi:role="line"
             id="tspan1001"
             x="50.734852"
             y="169.98064">Find more help</tspan></text>
        <rect
           style="opacity:0.999;fill:#080f19;fill-opacity:1;stroke:#080f19;stroke-width:0;stroke-linecap:round;stroke-linejoin:round;stroke-miterlimit:4;stroke-dasharray:none;stroke-opacity:1"
           id="rect1005"
           width="43.65625"
           height="6.8212891"
           x="2.6458333"
           y="5.2916665" />
        <rect
           style="opacity:0.999;fill:#080f19;fill-opacity:1;stroke:none;stroke-width:0;stroke-linecap:round;stroke-linejoin:round;stroke-miterlimit:4;stroke-dasharray:none;stroke-opacity:1"
           id="rect1005-0"
           width="43.656265"
           height="6.8212914"
           x="2.645817"
           y="166.4808" />
      </g>
      <path
         style="fill:none;stroke:#ffffff;stroke-width:0.3;stroke-linecap:butt;stroke-linejoin:miter;stroke-opacity:0.98892403;stroke-miterlimit:4;stroke-dasharray:none;marker-end:url(#Arrow2Mend)"
         d="M 21.648831,25.791509 49.979402,9.1539813"
         id="path1055" />
      <path
         style="fill:none;stroke:#ffffff;stroke-width:0.3;stroke-linecap:butt;stroke-linejoin:miter;stroke-miterlimit:4;stroke-dasharray:none;stroke-opacity:0.988924;marker-end:url(#Arrow2Mend-4)"
         d="M 23.876773,35.92115 50.555984,25.224663"
         id="path1055-0" />
      <path
         style="fill:none;stroke:#ffffff;stroke-width:0.3;stroke-linecap:butt;stroke-linejoin:miter;stroke-miterlimit:4;stroke-dasharray:none;stroke-opacity:0.988924;marker-end:url(#Arrow2Mend-9)"
         d="M 35.354529,46.721932 50.288889,40.91878"
         id="path1055-5" />
      <path
         style="fill:none;stroke:#ffffff;stroke-width:0.3;stroke-linecap:butt;stroke-linejoin:miter;stroke-miterlimit:4;stroke-dasharray:none;stroke-opacity:0.988924;marker-end:url(#Arrow2Mend-2)"
         d="M 29.160977,57.309635 49.929702,57.179174"
         id="path1055-7" />
      <path
         style="fill:none;stroke:#ffffff;stroke-width:0.3;stroke-linecap:butt;stroke-linejoin:miter;stroke-miterlimit:4;stroke-dasharray:none;stroke-opacity:0.988924;marker-end:url(#Arrow2Mend-8)"
         d="m 33.265004,68.140326 16.755288,3.905022"
         id="path1055-3" />
      <path
         style="fill:none;stroke:#ffffff;stroke-width:0.3;stroke-linecap:butt;stroke-linejoin:miter;stroke-miterlimit:4;stroke-dasharray:none;stroke-opacity:0.988924;marker-end:url(#Arrow2Mend-81)"
         d="M 32.731534,93.158855 50.34585,88.955408"
         id="path1055-4" />
      <path
         style="fill:none;stroke:#ffffff;stroke-width:0.3;stroke-linecap:butt;stroke-linejoin:miter;stroke-miterlimit:4;stroke-dasharray:none;stroke-opacity:0.988924;marker-end:url(#Arrow2Mend-1)"
         d="m 22.968077,104.3719 26.944186,0.0286"
         id="path1055-2" />
      <path
         style="fill:none;stroke:#ffffff;stroke-width:0.3;stroke-linecap:butt;stroke-linejoin:miter;stroke-miterlimit:4;stroke-dasharray:none;stroke-opacity:0.988924;marker-end:url(#Arrow2Mend-94)"
         d="m 34.407877,114.76721 15.863809,5.10436"
         id="path1055-03" />
      <path
         style="fill:none;stroke:#ffffff;stroke-width:0.3;stroke-linecap:butt;stroke-linejoin:miter;stroke-miterlimit:4;stroke-dasharray:none;stroke-opacity:0.988924;marker-end:url(#Arrow2Mend-90)"
         d="M 16.252917,125.63397 49.6339,135.67076"
         id="path1055-45" />
      <path
         style="fill:none;stroke:#ffffff;stroke-width:0.3;stroke-linecap:butt;stroke-linejoin:miter;stroke-miterlimit:4;stroke-dasharray:none;stroke-opacity:0.988924;marker-end:url(#Arrow2Mend-86)"
         d="m 22.208185,135.51583 27.771299,14.70275"
         id="path1055-74" />
      <path
         style="fill:none;stroke:#ffffff;stroke-width:0.3;stroke-linecap:butt;stroke-linejoin:miter;stroke-miterlimit:4;stroke-dasharray:none;stroke-opacity:0.988924;marker-end:url(#Arrow2Mend-7)"
         d="m 18.604763,146.61555 31.313242,20.57441"
         id="path1055-9" />
      <path
         style="fill:none;stroke:#000000;stroke-width:0.264583px;stroke-linecap:butt;stroke-linejoin:miter;stroke-opacity:1"
         d="m 156.29315,157.99405 17.5759,0.56696"
         id="path3076" />
    </g>
  </g>
</svg>
